module hospital/disease_service

go 1.20

require (
	github.com/golang/protobuf v1.5.3
	github.com/jmoiron/sqlx v1.3.5
	github.com/lib/pq v1.10.9
	github.com/spf13/cast v1.5.1
	go.uber.org/zap v1.24.0
	google.golang.org/grpc v1.55.0
)

require (
	go.uber.org/atomic v1.7.0 // indirect
	go.uber.org/multierr v1.6.0 // indirect
	golang.org/x/net v0.8.0 // indirect
	golang.org/x/sys v0.6.0 // indirect
	golang.org/x/text v0.8.0 // indirect
	google.golang.org/genproto v0.0.0-20230306155012-7f2fa6fef1f4 // indirect
	google.golang.org/protobuf v1.30.0 // indirect
)
